2012/08/31 14:35:57 [error] [exception.CHttpException.404] exception 'CHttpException' with message 'Unable to resolve the request "assets/lost_heaven/img/unionpay.png".' in E:\webserver\htdocs\yii\framework\web\CWebApplication.php:287
Stack trace:
#0 E:\webserver\htdocs\yii\framework\web\CWebApplication.php(142): CWebApplication->runController('assets/lost_hea...')
#1 E:\webserver\htdocs\yii\framework\base\CApplication.php(162): CWebApplication->processRequest()
#2 E:\webserver\htdocs\proect.test\www\index.php(13): CApplication->run()
#3 {main}
REQUEST_URI=/assets/lost_heaven/img/unionpay.png
HTTP_REFERER=http://localhost/lostheaven/
---
2012/08/31 14:35:58 [error] [exception.CHttpException.404] exception 'CHttpException' with message 'Unable to resolve the request "assets/lost_heaven/img/westernunion.png".' in E:\webserver\htdocs\yii\framework\web\CWebApplication.php:287
Stack trace:
#0 E:\webserver\htdocs\yii\framework\web\CWebApplication.php(142): CWebApplication->runController('assets/lost_hea...')
#1 E:\webserver\htdocs\yii\framework\base\CApplication.php(162): CWebApplication->processRequest()
#2 E:\webserver\htdocs\proect.test\www\index.php(13): CApplication->run()
#3 {main}
REQUEST_URI=/assets/lost_heaven/img/westernunion.png
HTTP_REFERER=http://localhost/lostheaven/
---
